# Blender MTL File: 'Whiteboard.blend'
# Material Count: 1

newmtl Whiteboard
Ns 500.000000
Ka 0.100000 0.100000 0.100000
Kd 1.400000 1.400000 1.400000
Ks 0.400000 0.400000 0.400000
Ke 0.000000 0.000000 0.000000
Ni 1.000000
d 1.000000
illum 1
map_Ka texture_whiteboard.png
map_Kd texture_whiteboard.png
